<define-tag pagetitle>DSA-4856-1 php7.3</define-tag>
<define-tag report_date>2021-2-17</define-tag>
<define-tag secrefs>CVE-2020-7068 CVE-2020-7069 CVE-2020-7070 CVE-2020-7071 CVE-2021-21702</define-tag>
<define-tag packages>php7.3</define-tag>
<define-tag isvulnerable>yes</define-tag>
<define-tag fixed>yes</define-tag>
<define-tag fixed-section>no</define-tag>

#use wml::debian::security



</dl>
