<define-tag pagetitle>DSA-4911-1 chromium</define-tag>
<define-tag report_date>2021-5-03</define-tag>
<define-tag secrefs>CVE-2021-21227 CVE-2021-21228 CVE-2021-21229 CVE-2021-21230 CVE-2021-21231 CVE-2021-21232 CVE-2021-21233</define-tag>
<define-tag packages>chromium</define-tag>
<define-tag isvulnerable>yes</define-tag>
<define-tag fixed>yes</define-tag>
<define-tag fixed-section>no</define-tag>

#use wml::debian::security



</dl>
