<define-tag pagetitle>DLA-1097-1 tcpdump</define-tag>
<define-tag report_date>2017-9-15</define-tag>
<define-tag secrefs>CVE-2017-12894 CVE-2017-12895 CVE-2017-12896 CVE-2017-1289 CVE-2017-12898 CVE-2017-12899 CVE-2017-12900 CVE-2017-1290 CVE-2017-12902 CVE-2017-12985 CVE-2017-12986 CVE-2017-1298 CVE-2017-12988 CVE-2017-12989 CVE-2017-12990 CVE-2017-1299 CVE-2017-12992 CVE-2017-12993 CVE-2017-12994 CVE-2017-1299 CVE-2017-12996 CVE-2017-12997 CVE-2017-12998 CVE-2017-1299 CVE-2017-13000 CVE-2017-13001 CVE-2017-13002 CVE-2017-1300 CVE-2017-13004 CVE-2017-13005 CVE-2017-13006 CVE-2017-1300 CVE-2017-13008 CVE-2017-13009 CVE-2017-13010 CVE-2017-1301 CVE-2017-13012 CVE-2017-13013 CVE-2017-13014 CVE-2017-1301 CVE-2017-13016 CVE-2017-13017 CVE-2017-13018 CVE-2017-1301 CVE-2017-13020 CVE-2017-13021 CVE-2017-13022 CVE-2017-1302 CVE-2017-13024 CVE-2017-13025 CVE-2017-13026 CVE-2017-1302 CVE-2017-13028 CVE-2017-13029 CVE-2017-13030 CVE-2017-1303 CVE-2017-13032 CVE-2017-13033 CVE-2017-13034 CVE-2017-1303 CVE-2017-13036 CVE-2017-13037 CVE-2017-13038 CVE-2017-1303 CVE-2017-13040 CVE-2017-13041 CVE-2017-13042 CVE-2017-1304 CVE-2017-13044 CVE-2017-13045 CVE-2017-13046 CVE-2017-1304 CVE-2017-13048 CVE-2017-13049 CVE-2017-13050 CVE-2017-1305 CVE-2017-13052 CVE-2017-13053 CVE-2017-13054 CVE-2017-1305 CVE-2017-13687 CVE-2017-13688 CVE-2017-13689 CVE-2017-1369 CVE-2017-13725 CVE-2017-12893</define-tag>
<define-tag packages>tcpdump</define-tag>
<define-tag isvulnerable>yes</define-tag>
<define-tag fixed>yes</define-tag>
<define-tag fixed-section>no</define-tag>

#use wml::debian::security

