<define-tag pagetitle>DLA-1014-1 libclamunrar</define-tag>
<define-tag report_date>2017-7-5</define-tag>
<define-tag secrefs>CVE-2017-7520 Bug##867223</define-tag>
<define-tag packages>libclamunrar</define-tag>
<define-tag isvulnerable>yes</define-tag>
<define-tag fixed>yes</define-tag>
<define-tag fixed-section>no</define-tag>

#use wml::debian::security

