<define-tag pagetitle>DLA-1354-1 opencv</define-tag>
<define-tag report_date>2018-4-18</define-tag>
<define-tag secrefs>CVE-2018-5268 CVE-2018-5269 Bug#886674 Bug#886675</define-tag>
<define-tag packages>opencv</define-tag>
<define-tag isvulnerable>yes</define-tag>
<define-tag fixed>yes</define-tag>
<define-tag fixed-section>no</define-tag>

#use wml::debian::security

