<define-tag pagetitle>DLA-631-1 unadf</define-tag>
<define-tag report_date>2016-9-21</define-tag>
<define-tag secrefs>CVE-2016-1243 CVE-2016-1244 Bug##838248</define-tag>
<define-tag packages>unadf</define-tag>
<define-tag isvulnerable>yes</define-tag>
<define-tag fixed>yes</define-tag>
<define-tag fixed-section>no</define-tag>

#use wml::debian::security

