<define-tag pagetitle>DLA-701-1 memcached</define-tag>
<define-tag report_date>2016-11-5</define-tag>
<define-tag secrefs>CVE-2013-7291 CVE-2016-8704 CVE-2016-8705 CVE-2016-8706 Bug#735314 Bug#842811 Bug#842812 Bug#842814</define-tag>
<define-tag packages>memcached</define-tag>
<define-tag isvulnerable>yes</define-tag>
<define-tag fixed>yes</define-tag>
<define-tag fixed-section>no</define-tag>

#use wml::debian::security

